%YAML 1.1
%TAG !u! tag:unity3d.com,2011:
--- !u!74 &7400000
AnimationClip:
  m_ObjectHideFlags: 0
  m_PrefabParentObject: {fileID: 0}
  m_PrefabInternal: {fileID: 0}
  m_Name: Star_Pop
  serializedVersion: 6
  m_Legacy: 0
  m_Compressed: 0
  m_UseHighQualityCurve: 1
  m_RotationCurves: []
  m_CompressedRotationCurves: []
  m_EulerCurves: []
  m_PositionCurves: []
  m_ScaleCurves: []
  m_FloatCurves: []
  m_PPtrCurves:
  - curve:
    - time: 0
      value: {fileID: 21300000, guid: 7f1ae13672bec994a863bcc92de169e4, type: 3}
    - time: 0.033333335
      value: {fileID: 21300000, guid: a813cfc8d7493cb47914469360964fce, type: 3}
    - time: 0.06666667
      value: {fileID: 21300000, guid: d13c28201e561244c9077df0ba992cf3, type: 3}
    - time: 0.1
      value: {fileID: 21300000, guid: 1ef53a4f2b0141f48a94c56e0c3564fb, type: 3}
    - time: 0.13333334
      value: {fileID: 21300000, guid: c2f60d3dd3a5b744e97a40e312711593, type: 3}
    - time: 0.16666667
      value: {fileID: 21300000, guid: 9b44860f6fb2d6b41b1e800ab56e7b2b, type: 3}
    - time: 0.2
      value: {fileID: 21300000, guid: cb872b2262a34e44998700743b4afc7e, type: 3}
    - time: 0.23333333
      value: {fileID: 21300000, guid: 16800ab7935b5da4ab02b37f79b4aa06, type: 3}
    - time: 0.26666668
      value: {fileID: 21300000, guid: 65127f98026eea543a5b99315422e43a, type: 3}
    - time: 0.3
      value: {fileID: 21300000, guid: 081821dbcbfe463439d5c5795166a5e4, type: 3}
    - time: 0.33333334
      value: {fileID: 21300000, guid: fccfad9cbe97ecc4fa96197dcd4e6ae4, type: 3}
    - time: 0.36666667
      value: {fileID: 21300000, guid: a4668988e54d1f04a940bcd3e4ac1ab6, type: 3}
    - time: 0.4
      value: {fileID: 21300000, guid: eb4d6e6b038ad8e4e8139f3589206463, type: 3}
    - time: 0.43333334
      value: {fileID: 21300000, guid: d5dcdf2310a83044eab95c3e0d558c6c, type: 3}
    - time: 0.46666667
      value: {fileID: 21300000, guid: 7f1ae13672bec994a863bcc92de169e4, type: 3}
    attribute: m_Sprite
    path: 
    classID: 212
    script: {fileID: 0}
  m_SampleRate: 30
  m_WrapMode: 0
  m_Bounds:
    m_Center: {x: 0, y: 0, z: 0}
    m_Extent: {x: 0, y: 0, z: 0}
  m_ClipBindingConstant:
    genericBindings:
    - path: 0
      attribute: 0
      script: {fileID: 0}
      classID: 212
      customType: 23
      isPPtrCurve: 1
    pptrCurveMapping:
    - {fileID: 21300000, guid: 7f1ae13672bec994a863bcc92de169e4, type: 3}
    - {fileID: 21300000, guid: a813cfc8d7493cb47914469360964fce, type: 3}
    - {fileID: 21300000, guid: d13c28201e561244c9077df0ba992cf3, type: 3}
    - {fileID: 21300000, guid: 1ef53a4f2b0141f48a94c56e0c3564fb, type: 3}
    - {fileID: 21300000, guid: c2f60d3dd3a5b744e97a40e312711593, type: 3}
    - {fileID: 21300000, guid: 9b44860f6fb2d6b41b1e800ab56e7b2b, type: 3}
    - {fileID: 21300000, guid: cb872b2262a34e44998700743b4afc7e, type: 3}
    - {fileID: 21300000, guid: 16800ab7935b5da4ab02b37f79b4aa06, type: 3}
    - {fileID: 21300000, guid: 65127f98026eea543a5b99315422e43a, type: 3}
    - {fileID: 21300000, guid: 081821dbcbfe463439d5c5795166a5e4, type: 3}
    - {fileID: 21300000, guid: fccfad9cbe97ecc4fa96197dcd4e6ae4, type: 3}
    - {fileID: 21300000, guid: a4668988e54d1f04a940bcd3e4ac1ab6, type: 3}
    - {fileID: 21300000, guid: eb4d6e6b038ad8e4e8139f3589206463, type: 3}
    - {fileID: 21300000, guid: d5dcdf2310a83044eab95c3e0d558c6c, type: 3}
    - {fileID: 21300000, guid: 7f1ae13672bec994a863bcc92de169e4, type: 3}
  m_AnimationClipSettings:
    serializedVersion: 2
    m_AdditiveReferencePoseClip: {fileID: 0}
    m_AdditiveReferencePoseTime: 0
    m_StartTime: 0
    m_StopTime: 0.5
    m_OrientationOffsetY: 0
    m_Level: 0
    m_CycleOffset: 0
    m_HasAdditiveReferencePose: 0
    m_LoopTime: 0
    m_LoopBlend: 0
    m_LoopBlendOrientation: 0
    m_LoopBlendPositionY: 0
    m_LoopBlendPositionXZ: 0
    m_KeepOriginalOrientation: 0
    m_KeepOriginalPositionY: 1
    m_KeepOriginalPositionXZ: 0
    m_HeightFromFeet: 0
    m_Mirror: 0
  m_EditorCurves: []
  m_EulerEditorCurves: []
  m_HasGenericRootTransform: 0
  m_HasMotionFloatCurves: 0
  m_GenerateMotionCurves: 0
  m_Events: []
