%YAML 1.1
%TAG !u! tag:unity3d.com,2011:
--- !u!74 &7400000
AnimationClip:
  m_ObjectHideFlags: 0
  m_PrefabParentObject: {fileID: 0}
  m_PrefabInternal: {fileID: 0}
  m_Name: Triangle_Pop
  serializedVersion: 6
  m_Legacy: 0
  m_Compressed: 0
  m_UseHighQualityCurve: 1
  m_RotationCurves: []
  m_CompressedRotationCurves: []
  m_EulerCurves: []
  m_PositionCurves: []
  m_ScaleCurves: []
  m_FloatCurves: []
  m_PPtrCurves:
  - curve:
    - time: 0
      value: {fileID: 21300000, guid: b38769d6a8026a4448d89c89791569d4, type: 3}
    - time: 0.033333335
      value: {fileID: 21300000, guid: 7c97c324d2a32674ca1a0c58f522a4ec, type: 3}
    - time: 0.06666667
      value: {fileID: 21300000, guid: ad01dc24e1574174a86287807f140a89, type: 3}
    - time: 0.1
      value: {fileID: 21300000, guid: 7f903402c194cf849ab90184983dd60c, type: 3}
    - time: 0.13333334
      value: {fileID: 21300000, guid: 40da678cc7dadeb448d87ba5c0b94fe7, type: 3}
    - time: 0.16666667
      value: {fileID: 21300000, guid: 2eabacbb46b4b0f4f86327e1e6175c8f, type: 3}
    - time: 0.2
      value: {fileID: 21300000, guid: 14f88f119010acc47a08e0b4317c484d, type: 3}
    - time: 0.23333333
      value: {fileID: 21300000, guid: 933359f436e7ee048942a9bf08e13001, type: 3}
    - time: 0.26666668
      value: {fileID: 21300000, guid: 63c504cc62e5d48438d435e672d58ab3, type: 3}
    - time: 0.3
      value: {fileID: 21300000, guid: 989ab6b81e3dff943b53716fc3bc0779, type: 3}
    - time: 0.33333334
      value: {fileID: 21300000, guid: 7a6a4ea6affebac4dba9f650c3970a35, type: 3}
    - time: 0.36666667
      value: {fileID: 21300000, guid: 64a2ca732c2100b4b90bb8fbdfe97872, type: 3}
    - time: 0.4
      value: {fileID: 21300000, guid: bf70b6ee6cd513f42acf42c3264715bd, type: 3}
    - time: 0.43333334
      value: {fileID: 21300000, guid: 951673a38717e4047a3898fec582b0ef, type: 3}
    - time: 0.46666667
      value: {fileID: 21300000, guid: b38769d6a8026a4448d89c89791569d4, type: 3}
    attribute: m_Sprite
    path: 
    classID: 212
    script: {fileID: 0}
  m_SampleRate: 30
  m_WrapMode: 0
  m_Bounds:
    m_Center: {x: 0, y: 0, z: 0}
    m_Extent: {x: 0, y: 0, z: 0}
  m_ClipBindingConstant:
    genericBindings:
    - path: 0
      attribute: 0
      script: {fileID: 0}
      classID: 212
      customType: 23
      isPPtrCurve: 1
    pptrCurveMapping:
    - {fileID: 21300000, guid: b38769d6a8026a4448d89c89791569d4, type: 3}
    - {fileID: 21300000, guid: 7c97c324d2a32674ca1a0c58f522a4ec, type: 3}
    - {fileID: 21300000, guid: ad01dc24e1574174a86287807f140a89, type: 3}
    - {fileID: 21300000, guid: 7f903402c194cf849ab90184983dd60c, type: 3}
    - {fileID: 21300000, guid: 40da678cc7dadeb448d87ba5c0b94fe7, type: 3}
    - {fileID: 21300000, guid: 2eabacbb46b4b0f4f86327e1e6175c8f, type: 3}
    - {fileID: 21300000, guid: 14f88f119010acc47a08e0b4317c484d, type: 3}
    - {fileID: 21300000, guid: 933359f436e7ee048942a9bf08e13001, type: 3}
    - {fileID: 21300000, guid: 63c504cc62e5d48438d435e672d58ab3, type: 3}
    - {fileID: 21300000, guid: 989ab6b81e3dff943b53716fc3bc0779, type: 3}
    - {fileID: 21300000, guid: 7a6a4ea6affebac4dba9f650c3970a35, type: 3}
    - {fileID: 21300000, guid: 64a2ca732c2100b4b90bb8fbdfe97872, type: 3}
    - {fileID: 21300000, guid: bf70b6ee6cd513f42acf42c3264715bd, type: 3}
    - {fileID: 21300000, guid: 951673a38717e4047a3898fec582b0ef, type: 3}
    - {fileID: 21300000, guid: b38769d6a8026a4448d89c89791569d4, type: 3}
  m_AnimationClipSettings:
    serializedVersion: 2
    m_AdditiveReferencePoseClip: {fileID: 0}
    m_AdditiveReferencePoseTime: 0
    m_StartTime: 0
    m_StopTime: 0.5
    m_OrientationOffsetY: 0
    m_Level: 0
    m_CycleOffset: 0
    m_HasAdditiveReferencePose: 0
    m_LoopTime: 0
    m_LoopBlend: 0
    m_LoopBlendOrientation: 0
    m_LoopBlendPositionY: 0
    m_LoopBlendPositionXZ: 0
    m_KeepOriginalOrientation: 0
    m_KeepOriginalPositionY: 1
    m_KeepOriginalPositionXZ: 0
    m_HeightFromFeet: 0
    m_Mirror: 0
  m_EditorCurves: []
  m_EulerEditorCurves: []
  m_HasGenericRootTransform: 0
  m_HasMotionFloatCurves: 0
  m_GenerateMotionCurves: 0
  m_Events: []
