%YAML 1.1
%TAG !u! tag:unity3d.com,2011:
--- !u!74 &7400000
AnimationClip:
  m_ObjectHideFlags: 0
  m_PrefabParentObject: {fileID: 0}
  m_PrefabInternal: {fileID: 0}
  m_Name: Heart_Pop
  serializedVersion: 6
  m_Legacy: 0
  m_Compressed: 0
  m_UseHighQualityCurve: 1
  m_RotationCurves: []
  m_CompressedRotationCurves: []
  m_EulerCurves: []
  m_PositionCurves: []
  m_ScaleCurves: []
  m_FloatCurves: []
  m_PPtrCurves:
  - curve:
    - time: 0
      value: {fileID: 21300000, guid: 49f5d6ee67f36fa449bda80774b953f2, type: 3}
    - time: 0.033333335
      value: {fileID: 21300000, guid: 79cb4876c5563e648b01a430b886efdd, type: 3}
    - time: 0.06666667
      value: {fileID: 21300000, guid: 5fef0f105661af84f93f45a4ee1c9015, type: 3}
    - time: 0.1
      value: {fileID: 21300000, guid: 21fc687a172fe40488a550e68a386a1d, type: 3}
    - time: 0.13333334
      value: {fileID: 21300000, guid: b39dcb109ed6e3147ae8b26fa73694ba, type: 3}
    - time: 0.16666667
      value: {fileID: 21300000, guid: 7a215a60adf969a4e87d37d471cad5b4, type: 3}
    - time: 0.2
      value: {fileID: 21300000, guid: aaa16733e22eb4243b6c591415be14cf, type: 3}
    - time: 0.23333333
      value: {fileID: 21300000, guid: 9b701ada82494fc4db33e474b1306755, type: 3}
    - time: 0.26666668
      value: {fileID: 21300000, guid: 8cbfe30a56d95f749ab920c78ff6b751, type: 3}
    - time: 0.3
      value: {fileID: 21300000, guid: 60814b6d729043e4db482e394aed7d92, type: 3}
    - time: 0.33333334
      value: {fileID: 21300000, guid: d944af1188af8bd4c845f4056b45fee4, type: 3}
    - time: 0.36666667
      value: {fileID: 21300000, guid: 678097cfb25626c4c8129c528028cb37, type: 3}
    - time: 0.4
      value: {fileID: 21300000, guid: 87d52b48ca817744d81995946eaafbf9, type: 3}
    - time: 0.43333334
      value: {fileID: 21300000, guid: 49f5d6ee67f36fa449bda80774b953f2, type: 3}
    attribute: m_Sprite
    path: 
    classID: 212
    script: {fileID: 0}
  m_SampleRate: 30
  m_WrapMode: 0
  m_Bounds:
    m_Center: {x: 0, y: 0, z: 0}
    m_Extent: {x: 0, y: 0, z: 0}
  m_ClipBindingConstant:
    genericBindings:
    - path: 0
      attribute: 0
      script: {fileID: 0}
      classID: 212
      customType: 23
      isPPtrCurve: 1
    pptrCurveMapping:
    - {fileID: 21300000, guid: 49f5d6ee67f36fa449bda80774b953f2, type: 3}
    - {fileID: 21300000, guid: 79cb4876c5563e648b01a430b886efdd, type: 3}
    - {fileID: 21300000, guid: 5fef0f105661af84f93f45a4ee1c9015, type: 3}
    - {fileID: 21300000, guid: 21fc687a172fe40488a550e68a386a1d, type: 3}
    - {fileID: 21300000, guid: b39dcb109ed6e3147ae8b26fa73694ba, type: 3}
    - {fileID: 21300000, guid: 7a215a60adf969a4e87d37d471cad5b4, type: 3}
    - {fileID: 21300000, guid: aaa16733e22eb4243b6c591415be14cf, type: 3}
    - {fileID: 21300000, guid: 9b701ada82494fc4db33e474b1306755, type: 3}
    - {fileID: 21300000, guid: 8cbfe30a56d95f749ab920c78ff6b751, type: 3}
    - {fileID: 21300000, guid: 60814b6d729043e4db482e394aed7d92, type: 3}
    - {fileID: 21300000, guid: d944af1188af8bd4c845f4056b45fee4, type: 3}
    - {fileID: 21300000, guid: 678097cfb25626c4c8129c528028cb37, type: 3}
    - {fileID: 21300000, guid: 87d52b48ca817744d81995946eaafbf9, type: 3}
    - {fileID: 21300000, guid: 49f5d6ee67f36fa449bda80774b953f2, type: 3}
  m_AnimationClipSettings:
    serializedVersion: 2
    m_AdditiveReferencePoseClip: {fileID: 0}
    m_AdditiveReferencePoseTime: 0
    m_StartTime: 0
    m_StopTime: 0.46666667
    m_OrientationOffsetY: 0
    m_Level: 0
    m_CycleOffset: 0
    m_HasAdditiveReferencePose: 0
    m_LoopTime: 0
    m_LoopBlend: 0
    m_LoopBlendOrientation: 0
    m_LoopBlendPositionY: 0
    m_LoopBlendPositionXZ: 0
    m_KeepOriginalOrientation: 0
    m_KeepOriginalPositionY: 1
    m_KeepOriginalPositionXZ: 0
    m_HeightFromFeet: 0
    m_Mirror: 0
  m_EditorCurves: []
  m_EulerEditorCurves: []
  m_HasGenericRootTransform: 0
  m_HasMotionFloatCurves: 0
  m_GenerateMotionCurves: 0
  m_Events: []
