%YAML 1.1
%TAG !u! tag:unity3d.com,2011:
--- !u!1 &164358
GameObject:
  m_ObjectHideFlags: 1
  m_PrefabParentObject: {fileID: 0}
  m_PrefabInternal: {fileID: 100100000}
  serializedVersion: 4
  m_Component:
  - 224: {fileID: 22449936}
  - 222: {fileID: 22207832}
  - 114: {fileID: 11406116}
  m_Layer: 0
  m_Name: Thumb
  m_TagString: Untagged
  m_Icon: {fileID: 0}
  m_NavMeshLayer: 0
  m_StaticEditorFlags: 0
  m_IsActive: 1
--- !u!1 &180314
GameObject:
  m_ObjectHideFlags: 0
  m_PrefabParentObject: {fileID: 0}
  m_PrefabInternal: {fileID: 100100000}
  serializedVersion: 4
  m_Component:
  - 224: {fileID: 22450082}
  - 114: {fileID: 11417732}
  - 225: {fileID: 22591006}
  - 222: {fileID: 22284568}
  - 114: {fileID: 11456478}
  m_Layer: 0
  m_Name: Joystick
  m_TagString: Untagged
  m_Icon: {fileID: 0}
  m_NavMeshLayer: 0
  m_StaticEditorFlags: 0
  m_IsActive: 1
--- !u!1 &195744
GameObject:
  m_ObjectHideFlags: 0
  m_PrefabParentObject: {fileID: 0}
  m_PrefabInternal: {fileID: 100100000}
  serializedVersion: 4
  m_Component:
  - 224: {fileID: 22483718}
  - 223: {fileID: 22392894}
  - 114: {fileID: 11434912}
  - 114: {fileID: 11445766}
  m_Layer: 0
  m_Name: ThirdPersonControllerDungeon
  m_TagString: Untagged
  m_Icon: {fileID: 0}
  m_NavMeshLayer: 0
  m_StaticEditorFlags: 0
  m_IsActive: 1
--- !u!114 &11406116
MonoBehaviour:
  m_ObjectHideFlags: 1
  m_PrefabParentObject: {fileID: 0}
  m_PrefabInternal: {fileID: 100100000}
  m_GameObject: {fileID: 164358}
  m_Enabled: 1
  m_EditorHideFlags: 0
  m_Script: {fileID: -765806418, guid: f5f67c52d1564df4a8936ccd202a3bd8, type: 3}
  m_Name: 
  m_EditorClassIdentifier: 
  m_Material: {fileID: 0}
  m_Color: {r: 1, g: 1, b: 1, a: 1}
  m_RaycastTarget: 1
  m_OnCullStateChanged:
    m_PersistentCalls:
      m_Calls: []
    m_TypeName: UnityEngine.UI.MaskableGraphic+CullStateChangedEvent, UnityEngine.UI,
      Version=1.0.0.0, Culture=neutral, PublicKeyToken=null
  m_Sprite: {fileID: 21300002, guid: becfdeef1534456438d787466a94d207, type: 3}
  m_Type: 0
  m_PreserveAspect: 1
  m_FillCenter: 1
  m_FillMethod: 4
  m_FillAmount: 1
  m_FillClockwise: 1
  m_FillOrigin: 0
--- !u!114 &11417732
MonoBehaviour:
  m_ObjectHideFlags: 1
  m_PrefabParentObject: {fileID: 0}
  m_PrefabInternal: {fileID: 100100000}
  m_GameObject: {fileID: 180314}
  m_Enabled: 1
  m_EditorHideFlags: 0
  m_Script: {fileID: 11500000, guid: c26c7a0dcd8138d4194e0a4435a4740c, type: 3}
  m_Name: 
  m_EditorClassIdentifier: 
  isUnregisterAtDisable: 0
  _anchor: 1
  _anchorOffet: {x: 50, y: 50}
  _visible: 1
  _activated: 1
  enableCamera: 1
  cameraMode: 0
  camTargetTag: Player
  autoLinkTagCam: 1
  autoCamTag: MainCamera
  cameraTransform: {fileID: 0}
  cameraTargetMode: 1
  enableWallDetection: 0
  wallLayer:
    serializedVersion: 2
    m_Bits: 0
  cameraLookAt: {fileID: 0}
  followOffset: {x: 0, y: 4, z: -4}
  followDistance: 3.5
  followHeight: 1.5
  followRotationDamping: 6
  followHeightDamping: 6
  pointId: -1
  enableKeySimulation: 1
  allowSimulationStandalone: 0
  visibleOnStandalone: 1
  dPadAxisCount: 0
  useFixedUpdate: 0
  isOnDrag: 0
  isSwipeIn: 0
  isSwipeOut: 0
  showPSInspector: 0
  showSpriteInspector: 0
  showEventInspector: 0
  showBehaviourInspector: 0
  showAxesInspector: 1
  showTouchEventInspector: 0
  showDownEventInspector: 0
  showPressEventInspector: 0
  showCameraInspector: 1
  onMoveStart:
    m_PersistentCalls:
      m_Calls: []
    m_TypeName: ETCJoystick+OnMoveStartHandler, Assembly-CSharp, Version=0.0.0.0,
      Culture=neutral, PublicKeyToken=null
  onMove:
    m_PersistentCalls:
      m_Calls: []
    m_TypeName: ETCJoystick+OnMoveHandler, Assembly-CSharp, Version=0.0.0.0, Culture=neutral,
      PublicKeyToken=null
  onMoveSpeed:
    m_PersistentCalls:
      m_Calls: []
    m_TypeName: ETCJoystick+OnMoveSpeedHandler, Assembly-CSharp, Version=0.0.0.0,
      Culture=neutral, PublicKeyToken=null
  onMoveEnd:
    m_PersistentCalls:
      m_Calls: []
    m_TypeName: ETCJoystick+OnMoveEndHandler, Assembly-CSharp, Version=0.0.0.0, Culture=neutral,
      PublicKeyToken=null
  onTouchStart:
    m_PersistentCalls:
      m_Calls: []
    m_TypeName: ETCJoystick+OnTouchStartHandler, Assembly-CSharp, Version=0.0.0.0,
      Culture=neutral, PublicKeyToken=null
  onTouchUp:
    m_PersistentCalls:
      m_Calls: []
    m_TypeName: ETCJoystick+OnTouchUpHandler, Assembly-CSharp, Version=0.0.0.0, Culture=neutral,
      PublicKeyToken=null
  OnDownUp:
    m_PersistentCalls:
      m_Calls: []
    m_TypeName: ETCJoystick+OnDownUpHandler, Assembly-CSharp, Version=0.0.0.0, Culture=neutral,
      PublicKeyToken=null
  OnDownDown:
    m_PersistentCalls:
      m_Calls: []
    m_TypeName: ETCJoystick+OnDownDownHandler, Assembly-CSharp, Version=0.0.0.0, Culture=neutral,
      PublicKeyToken=null
  OnDownLeft:
    m_PersistentCalls:
      m_Calls: []
    m_TypeName: ETCJoystick+OnDownLeftHandler, Assembly-CSharp, Version=0.0.0.0, Culture=neutral,
      PublicKeyToken=null
  OnDownRight:
    m_PersistentCalls:
      m_Calls: []
    m_TypeName: ETCJoystick+OnDownRightHandler, Assembly-CSharp, Version=0.0.0.0,
      Culture=neutral, PublicKeyToken=null
  OnPressUp:
    m_PersistentCalls:
      m_Calls: []
    m_TypeName: ETCJoystick+OnDownUpHandler, Assembly-CSharp, Version=0.0.0.0, Culture=neutral,
      PublicKeyToken=null
  OnPressDown:
    m_PersistentCalls:
      m_Calls: []
    m_TypeName: ETCJoystick+OnDownDownHandler, Assembly-CSharp, Version=0.0.0.0, Culture=neutral,
      PublicKeyToken=null
  OnPressLeft:
    m_PersistentCalls:
      m_Calls: []
    m_TypeName: ETCJoystick+OnDownLeftHandler, Assembly-CSharp, Version=0.0.0.0, Culture=neutral,
      PublicKeyToken=null
  OnPressRight:
    m_PersistentCalls:
      m_Calls: []
    m_TypeName: ETCJoystick+OnDownRightHandler, Assembly-CSharp, Version=0.0.0.0,
      Culture=neutral, PublicKeyToken=null
  joystickType: 1
  allowJoystickOverTouchPad: 0
  radiusBase: 0
  radiusBaseValue: 0
  axisX:
    name: Horizontal
    autoLinkTagPlayer: 1
    autoTag: Player
    player: {fileID: 0}
    enable: 1
    invertedAxis: 0
    speed: 200
    deadValue: 0.1
    valueMethod: 0
    curveValue:
      serializedVersion: 2
      m_Curve:
      - time: 0
        value: 0
        inSlope: 0
        outSlope: 0
        tangentMode: 0
      - time: 1
        value: 1
        inSlope: 0
        outSlope: 0
        tangentMode: 0
      m_PreInfinity: 0
      m_PostInfinity: 0
      m_RotationOrder: 4
    isEnertia: 0
    inertia: 0
    inertiaThreshold: 0.08
    isAutoStab: 0
    autoStabThreshold: 0.01
    autoStabSpeed: 10
    isClampRotation: 0
    maxAngle: 90
    minAngle: 90
    isValueOverTime: 0
    overTimeStep: 1
    maxOverTimeValue: 1
    axisValue: 0
    axisSpeedValue: 0
    axisThreshold: 0.5
    isLockinJump: 0
    axisState: 0
    _directTransform: {fileID: 0}
    directAction: 1
    axisInfluenced: 1
    actionOn: 1
    directCharacterController: {fileID: 0}
    directRigidBody: {fileID: 0}
    gravity: 0
    currentGravity: 0
    isJump: 0
    unityAxis: Horizontal
    showGeneralInspector: 1
    showDirectInspector: 1
    showInertiaInspector: 0
    showSimulatinInspector: 0
  axisY:
    name: Vertical
    autoLinkTagPlayer: 1
    autoTag: Player
    player: {fileID: 0}
    enable: 1
    invertedAxis: 0
    speed: 12
    deadValue: 0.1
    valueMethod: 0
    curveValue:
      serializedVersion: 2
      m_Curve:
      - time: 0
        value: 0
        inSlope: 0
        outSlope: 0
        tangentMode: 0
      - time: 1
        value: 1
        inSlope: 0
        outSlope: 0
        tangentMode: 0
      m_PreInfinity: 0
      m_PostInfinity: 0
      m_RotationOrder: 4
    isEnertia: 0
    inertia: 0
    inertiaThreshold: 0.08
    isAutoStab: 0
    autoStabThreshold: 0.01
    autoStabSpeed: 10
    isClampRotation: 0
    maxAngle: 90
    minAngle: 90
    isValueOverTime: 0
    overTimeStep: 1
    maxOverTimeValue: 1
    axisValue: 0
    axisSpeedValue: 0
    axisThreshold: 0.5
    isLockinJump: 0
    axisState: 0
    _directTransform: {fileID: 0}
    directAction: 3
    axisInfluenced: 2
    actionOn: 1
    directCharacterController: {fileID: 0}
    directRigidBody: {fileID: 0}
    gravity: 9.81
    currentGravity: 0
    isJump: 0
    unityAxis: Vertical
    showGeneralInspector: 1
    showDirectInspector: 1
    showInertiaInspector: 1
    showSimulatinInspector: 0
  thumb: {fileID: 22449936}
  joystickArea: 1
  userArea: {fileID: 0}
  isTurnAndMove: 1
  tmSpeed: 10
  tmAdditionnalRotation: 0
  tmMoveCurve:
    serializedVersion: 2
    m_Curve:
    - time: 0
      value: 0
      inSlope: 0
      outSlope: 0
      tangentMode: 0
    - time: 1
      value: 1
      inSlope: 0
      outSlope: 0
      tangentMode: 0
    m_PreInfinity: 0
    m_PostInfinity: 0
    m_RotationOrder: 4
  tmLockInJump: 0
  isNoReturnThumb: 0
  isNoOffsetThumb: 0
--- !u!114 &11434912
MonoBehaviour:
  m_ObjectHideFlags: 1
  m_PrefabParentObject: {fileID: 0}
  m_PrefabInternal: {fileID: 100100000}
  m_GameObject: {fileID: 195744}
  m_Enabled: 1
  m_EditorHideFlags: 0
  m_Script: {fileID: 1980459831, guid: f5f67c52d1564df4a8936ccd202a3bd8, type: 3}
  m_Name: 
  m_EditorClassIdentifier: 
  m_UiScaleMode: 1
  m_ReferencePixelsPerUnit: 100
  m_ScaleFactor: 1
  m_ReferenceResolution: {x: 800, y: 600}
  m_ScreenMatchMode: 0
  m_MatchWidthOrHeight: 0
  m_PhysicalUnit: 3
  m_FallbackScreenDPI: 96
  m_DefaultSpriteDPI: 96
  m_DynamicPixelsPerUnit: 1
--- !u!114 &11445766
MonoBehaviour:
  m_ObjectHideFlags: 1
  m_PrefabParentObject: {fileID: 0}
  m_PrefabInternal: {fileID: 100100000}
  m_GameObject: {fileID: 195744}
  m_Enabled: 1
  m_EditorHideFlags: 0
  m_Script: {fileID: 1301386320, guid: f5f67c52d1564df4a8936ccd202a3bd8, type: 3}
  m_Name: 
  m_EditorClassIdentifier: 
  m_IgnoreReversedGraphics: 1
  m_BlockingObjects: 0
  m_BlockingMask:
    serializedVersion: 2
    m_Bits: 4294967295
--- !u!114 &11456478
MonoBehaviour:
  m_ObjectHideFlags: 1
  m_PrefabParentObject: {fileID: 0}
  m_PrefabInternal: {fileID: 100100000}
  m_GameObject: {fileID: 180314}
  m_Enabled: 1
  m_EditorHideFlags: 0
  m_Script: {fileID: -765806418, guid: f5f67c52d1564df4a8936ccd202a3bd8, type: 3}
  m_Name: 
  m_EditorClassIdentifier: 
  m_Material: {fileID: 0}
  m_Color: {r: 1, g: 1, b: 1, a: 1}
  m_RaycastTarget: 1
  m_OnCullStateChanged:
    m_PersistentCalls:
      m_Calls: []
    m_TypeName: UnityEngine.UI.MaskableGraphic+CullStateChangedEvent, UnityEngine.UI,
      Version=1.0.0.0, Culture=neutral, PublicKeyToken=null
  m_Sprite: {fileID: 21300000, guid: becfdeef1534456438d787466a94d207, type: 3}
  m_Type: 0
  m_PreserveAspect: 1
  m_FillCenter: 1
  m_FillMethod: 4
  m_FillAmount: 1
  m_FillClockwise: 1
  m_FillOrigin: 0
--- !u!222 &22207832
CanvasRenderer:
  m_ObjectHideFlags: 1
  m_PrefabParentObject: {fileID: 0}
  m_PrefabInternal: {fileID: 100100000}
  m_GameObject: {fileID: 164358}
--- !u!222 &22284568
CanvasRenderer:
  m_ObjectHideFlags: 1
  m_PrefabParentObject: {fileID: 0}
  m_PrefabInternal: {fileID: 100100000}
  m_GameObject: {fileID: 180314}
--- !u!223 &22392894
Canvas:
  m_ObjectHideFlags: 1
  m_PrefabParentObject: {fileID: 0}
  m_PrefabInternal: {fileID: 100100000}
  m_GameObject: {fileID: 195744}
  m_Enabled: 1
  serializedVersion: 2
  m_RenderMode: 0
  m_Camera: {fileID: 0}
  m_PlaneDistance: 100
  m_PixelPerfect: 0
  m_ReceivesEvents: 1
  m_OverrideSorting: 0
  m_OverridePixelPerfect: 0
  m_SortingLayerID: 0
  m_SortingOrder: 0
  m_TargetDisplay: 0
--- !u!224 &22449936
RectTransform:
  m_ObjectHideFlags: 1
  m_PrefabParentObject: {fileID: 0}
  m_PrefabInternal: {fileID: 100100000}
  m_GameObject: {fileID: 164358}
  m_LocalRotation: {x: 0, y: 0, z: 0, w: 1}
  m_LocalPosition: {x: 0, y: 0, z: 0}
  m_LocalScale: {x: 1, y: 1, z: 1}
  m_Children: []
  m_Father: {fileID: 22450082}
  m_RootOrder: 0
  m_AnchorMin: {x: 0.5, y: 0.5}
  m_AnchorMax: {x: 0.5, y: 0.5}
  m_AnchoredPosition: {x: 0, y: 0}
  m_SizeDelta: {x: 80, y: 79.68749}
  m_Pivot: {x: 0.5, y: 0.5}
--- !u!224 &22450082
RectTransform:
  m_ObjectHideFlags: 1
  m_PrefabParentObject: {fileID: 0}
  m_PrefabInternal: {fileID: 100100000}
  m_GameObject: {fileID: 180314}
  m_LocalRotation: {x: 0, y: 0, z: 0, w: 1}
  m_LocalPosition: {x: 0, y: 0, z: 0}
  m_LocalScale: {x: 1, y: 1, z: 1}
  m_Children:
  - {fileID: 22449936}
  m_Father: {fileID: 22483718}
  m_RootOrder: 0
  m_AnchorMin: {x: 0, y: 0}
  m_AnchorMax: {x: 0, y: 0}
  m_AnchoredPosition: {x: 115, y: 114.866806}
  m_SizeDelta: {x: 130, y: 129.73361}
  m_Pivot: {x: 0.5, y: 0.5}
--- !u!224 &22483718
RectTransform:
  m_ObjectHideFlags: 1
  m_PrefabParentObject: {fileID: 0}
  m_PrefabInternal: {fileID: 100100000}
  m_GameObject: {fileID: 195744}
  m_LocalRotation: {x: 0, y: 0, z: 0, w: 1}
  m_LocalPosition: {x: 0, y: 0, z: 0}
  m_LocalScale: {x: 0, y: 0, z: 0}
  m_Children:
  - {fileID: 22450082}
  m_Father: {fileID: 0}
  m_RootOrder: 0
  m_AnchorMin: {x: 0, y: 0}
  m_AnchorMax: {x: 0, y: 0}
  m_AnchoredPosition: {x: 0, y: 0}
  m_SizeDelta: {x: 0, y: 0}
  m_Pivot: {x: 0, y: 0}
--- !u!225 &22591006
CanvasGroup:
  m_ObjectHideFlags: 1
  m_PrefabParentObject: {fileID: 0}
  m_PrefabInternal: {fileID: 100100000}
  m_GameObject: {fileID: 180314}
  m_Enabled: 1
  m_Alpha: 1
  m_Interactable: 1
  m_BlocksRaycasts: 1
  m_IgnoreParentGroups: 0
--- !u!1001 &100100000
Prefab:
  m_ObjectHideFlags: 1
  serializedVersion: 2
  m_Modification:
    m_TransformParent: {fileID: 0}
    m_Modifications: []
    m_RemovedComponents: []
  m_ParentPrefab: {fileID: 0}
  m_RootGameObject: {fileID: 195744}
  m_IsPrefabParent: 1
